Library\Bee\artifacts\mvdfrm\Unity.EditorCoroutines.Editor.ref.dll_34ED10A34098B2DB.mvfrm
Library\Bee\artifacts\mvdfrm\Unity.InputSystem.ForUI.ref.dll_0478B67D1094CE70.mvfrm
Library\Bee\artifacts\mvdfrm\Unity.InputSystem.ref.dll_FD2EC87C14EBE081.mvfrm
Library\Bee\artifacts\mvdfrm\Unity.Mathematics.Editor.ref.dll_9A20CFD48BC11F43.mvfrm
Library\Bee\artifacts\mvdfrm\Unity.Mathematics.ref.dll_E8EFDB1B8D5C174E.mvfrm
Library\Bee\artifacts\mvdfrm\Unity.Performance.Profile-Analyzer.Editor.ref.dll_65A192712782EB2B.mvfrm
Library\Bee\artifacts\mvdfrm\Unity.PlasticSCM.Editor.ref.dll_257AEB342BE77856.mvfrm
Library\Bee\artifacts\mvdfrm\Unity.Rider.Editor.ref.dll_9B5591808ABA37AF.mvfrm
Library\Bee\artifacts\mvdfrm\Unity.TestTools.CodeCoverage.Editor.OpenCover.Model.ref.dll_D3B9364D6FB03093.mvfrm
Library\Bee\artifacts\mvdfrm\Unity.TestTools.CodeCoverage.Editor.OpenCover.Mono.Reflection.ref.dll_E668CD773429A040.mvfrm
Library\Bee\artifacts\mvdfrm\Unity.TestTools.CodeCoverage.Editor.ref.dll_F09CF4826CE11CD9.mvfrm
Library\Bee\artifacts\mvdfrm\Unity.TextMeshPro.Editor.ref.dll_159E061D77A10B86.mvfrm
Library\Bee\artifacts\mvdfrm\Unity.TextMeshPro.ref.dll_84A4293DBDD182DB.mvfrm
Library\Bee\artifacts\mvdfrm\Unity.Timeline.Editor.ref.dll_0D3D3C0B73557612.mvfrm
Library\Bee\artifacts\mvdfrm\Unity.Timeline.ref.dll_621CDDF9C514DF8F.mvfrm
Library\Bee\artifacts\mvdfrm\Unity.VSCode.Editor.ref.dll_3628369EB48E4C19.mvfrm
Library\Bee\artifacts\mvdfrm\Unity.VisualScripting.Core.Editor.ref.dll_EDC8690F57C5BDFD.mvfrm
Library\Bee\artifacts\mvdfrm\Unity.VisualScripting.Core.ref.dll_D75DF4EA1AFE54F4.mvfrm
Library\Bee\artifacts\mvdfrm\Unity.VisualScripting.Flow.Editor.ref.dll_6AF951BE66A4493E.mvfrm
Library\Bee\artifacts\mvdfrm\Unity.VisualScripting.Flow.ref.dll_1E6ED5409D07C9A3.mvfrm
Library\Bee\artifacts\mvdfrm\Unity.VisualScripting.SettingsProvider.Editor.ref.dll_A1A44354E0B583A8.mvfrm
Library\Bee\artifacts\mvdfrm\Unity.VisualScripting.Shared.Editor.ref.dll_9669F6EBFF6DFFB7.mvfrm
Library\Bee\artifacts\mvdfrm\Unity.VisualScripting.State.Editor.ref.dll_E03858E727F23F6F.mvfrm
Library\Bee\artifacts\mvdfrm\Unity.VisualScripting.State.ref.dll_D91762B7076BE462.mvfrm
Library\Bee\artifacts\mvdfrm\Unity.VisualStudio.Editor.ref.dll_3A975DBA53ABA4AD.mvfrm
Library\Bee\artifacts\mvdfrm\Unity.XR.CoreUtils.Editor.ref.dll_ABFC049C4594FF75.mvfrm
Library\Bee\artifacts\mvdfrm\Unity.XR.CoreUtils.ref.dll_3CA2B461938B5BFC.mvfrm
Library\Bee\artifacts\mvdfrm\Unity.XR.Interaction.Toolkit.Editor.ref.dll_13D11C44DBE92115.mvfrm
Library\Bee\artifacts\mvdfrm\Unity.XR.Interaction.Toolkit.Samples.StarterAssets.Editor.ref.dll_CE8B080C07253616.mvfrm
Library\Bee\artifacts\mvdfrm\Unity.XR.Interaction.Toolkit.Samples.StarterAssets.ref.dll_47844EB97FE7EF4B.mvfrm
Library\Bee\artifacts\mvdfrm\Unity.XR.Interaction.Toolkit.ref.dll_96C656129EF9A05C.mvfrm
Library\Bee\artifacts\mvdfrm\Unity.XR.Management.Editor.ref.dll_7BA8CC5454F13E52.mvfrm
Library\Bee\artifacts\mvdfrm\Unity.XR.Management.ref.dll_404BC0C35449934F.mvfrm
Library\Bee\artifacts\mvdfrm\Unity.XR.Oculus.Editor.ref.dll_EC6E1675CFAEEAAC.mvfrm
Library\Bee\artifacts\mvdfrm\Unity.XR.Oculus.ref.dll_431DEB9238966955.mvfrm
Library\Bee\artifacts\mvdfrm\Unity.XR.OpenXR.Editor.ref.dll_A75B1C5B45FBE091.mvfrm
Library\Bee\artifacts\mvdfrm\Unity.XR.OpenXR.Features.ConformanceAutomation.ref.dll_01FEA043C7470D3F.mvfrm
Library\Bee\artifacts\mvdfrm\Unity.XR.OpenXR.Features.MetaQuestSupport.Editor.ref.dll_9D3FA5F897E3A50C.mvfrm
Library\Bee\artifacts\mvdfrm\Unity.XR.OpenXR.Features.MetaQuestSupport.ref.dll_D1907459A4C188F5.mvfrm
Library\Bee\artifacts\mvdfrm\Unity.XR.OpenXR.Features.OculusQuestSupport.Editor.ref.dll_FEFB5585E8396F68.mvfrm
Library\Bee\artifacts\mvdfrm\Unity.XR.OpenXR.Features.OculusQuestSupport.ref.dll_9101E0597D5BC8D9.mvfrm
Library\Bee\artifacts\mvdfrm\Unity.XR.OpenXR.Features.RuntimeDebugger.Editor.ref.dll_C24E087EF9B388C5.mvfrm
Library\Bee\artifacts\mvdfrm\Unity.XR.OpenXR.ref.dll_18763C29B6421920.mvfrm
Library\Bee\artifacts\mvdfrm\UnityEditor.SpatialTracking.ref.dll_8911EA67839E93F0.mvfrm
Library\Bee\artifacts\mvdfrm\UnityEditor.UI.ref.dll_4C98D3F7040CD4F5.mvfrm
Library\Bee\artifacts\mvdfrm\UnityEditor.XR.LegacyInputHelpers.ref.dll_3F12D550ED6E7C7D.mvfrm
Library\Bee\artifacts\mvdfrm\UnityEngine.SpatialTracking.ref.dll_1552DC8EFC971715.mvfrm
Library\Bee\artifacts\mvdfrm\UnityEngine.UI.ref.dll_08FEAA520A2EFD60.mvfrm
Library\Bee\artifacts\mvdfrm\UnityEngine.XR.LegacyInputHelpers.ref.dll_FFA26A0728B3CF82.mvfrm
Library\Bee\artifacts\mvdfrm\UnityEditor.CoreModule.dll_5AA6D3AC36090893.mvfrm
Library\Bee\artifacts\mvdfrm\UnityEditor.DeviceSimulatorModule.dll_C5842CE4E8FC8E9E.mvfrm
Library\Bee\artifacts\mvdfrm\UnityEditor.DiagnosticsModule.dll_F9F53BA79B32E96C.mvfrm
Library\Bee\artifacts\mvdfrm\UnityEditor.dll_4AE1A4D6A7E31C92.mvfrm
Library\Bee\artifacts\mvdfrm\UnityEditor.EditorToolbarModule.dll_BDF405F65A2814AE.mvfrm
Library\Bee\artifacts\mvdfrm\UnityEditor.GraphViewModule.dll_7268B17A46BD17C3.mvfrm
Library\Bee\artifacts\mvdfrm\UnityEditor.PresetsUIModule.dll_2DCEEA5C49156FC8.mvfrm
Library\Bee\artifacts\mvdfrm\UnityEditor.QuickSearchModule.dll_8504BCB4F409E5C5.mvfrm
Library\Bee\artifacts\mvdfrm\UnityEditor.SceneTemplateModule.dll_E19376B45914BEE6.mvfrm
Library\Bee\artifacts\mvdfrm\UnityEditor.SceneViewModule.dll_B11894823BDFE4D1.mvfrm
Library\Bee\artifacts\mvdfrm\UnityEditor.TextCoreFontEngineModule.dll_E0263E94500478B1.mvfrm
Library\Bee\artifacts\mvdfrm\UnityEditor.TextCoreTextEngineModule.dll_280E7505DF8831CF.mvfrm
Library\Bee\artifacts\mvdfrm\UnityEditor.UIBuilderModule.dll_C6F15E96B97590F7.mvfrm
Library\Bee\artifacts\mvdfrm\UnityEditor.UIElementsModule.dll_4861B0AEF9CA9CEF.mvfrm
Library\Bee\artifacts\mvdfrm\UnityEditor.UIElementsSamplesModule.dll_D0EBCEB2B9DFC86E.mvfrm
Library\Bee\artifacts\mvdfrm\UnityEditor.UnityConnectModule.dll_45EACF655C7700C9.mvfrm
Library\Bee\artifacts\mvdfrm\UnityEngine.AccessibilityModule.dll_1438E24B598AE683.mvfrm
Library\Bee\artifacts\mvdfrm\UnityEngine.AIModule.dll_53BF7D38EDB90287.mvfrm
Library\Bee\artifacts\mvdfrm\UnityEngine.AndroidJNIModule.dll_C6AA998242EA0BC5.mvfrm
Library\Bee\artifacts\mvdfrm\UnityEngine.AnimationModule.dll_40EE2DA32119EC69.mvfrm
Library\Bee\artifacts\mvdfrm\UnityEngine.ARModule.dll_0D32423C4AD66150.mvfrm
Library\Bee\artifacts\mvdfrm\UnityEngine.AssetBundleModule.dll_C8EDEFA656709AB7.mvfrm
Library\Bee\artifacts\mvdfrm\UnityEngine.AudioModule.dll_1701320104C88B1B.mvfrm
Library\Bee\artifacts\mvdfrm\UnityEngine.ClothModule.dll_7DE98EFBDEE569FF.mvfrm
Library\Bee\artifacts\mvdfrm\UnityEngine.ClusterInputModule.dll_C587447B0DFED38F.mvfrm
Library\Bee\artifacts\mvdfrm\UnityEngine.ClusterRendererModule.dll_CB30EF5658B79C22.mvfrm
Library\Bee\artifacts\mvdfrm\UnityEngine.ContentLoadModule.dll_620448E724F342A4.mvfrm
Library\Bee\artifacts\mvdfrm\UnityEngine.CoreModule.dll_7DC7A6FEDE0E73BE.mvfrm
Library\Bee\artifacts\mvdfrm\UnityEngine.CrashReportingModule.dll_8B6B973E5EBBCA16.mvfrm
Library\Bee\artifacts\mvdfrm\UnityEngine.DirectorModule.dll_85BA38BDAE34C15B.mvfrm
Library\Bee\artifacts\mvdfrm\UnityEngine.dll_7D85EBAF0656A977.mvfrm
Library\Bee\artifacts\mvdfrm\UnityEngine.DSPGraphModule.dll_8B0B9A272095927C.mvfrm
Library\Bee\artifacts\mvdfrm\UnityEngine.GameCenterModule.dll_F0F7E39D092AFCB6.mvfrm
Library\Bee\artifacts\mvdfrm\UnityEngine.GIModule.dll_EBFBC6468967EAA1.mvfrm
Library\Bee\artifacts\mvdfrm\UnityEngine.GridModule.dll_5B38C2ECF66309B5.mvfrm
Library\Bee\artifacts\mvdfrm\UnityEngine.HotReloadModule.dll_C236EBA8FC4D07EB.mvfrm
Library\Bee\artifacts\mvdfrm\UnityEngine.ImageConversionModule.dll_3722ED06DADC5416.mvfrm
Library\Bee\artifacts\mvdfrm\UnityEngine.IMGUIModule.dll_4F60D167CAFA1EFC.mvfrm
Library\Bee\artifacts\mvdfrm\UnityEngine.InputLegacyModule.dll_5A330AC4EE6250A8.mvfrm
Library\Bee\artifacts\mvdfrm\UnityEngine.InputModule.dll_7D76F9B17B00AFBF.mvfrm
Library\Bee\artifacts\mvdfrm\UnityEngine.JSONSerializeModule.dll_74506B8758C6470D.mvfrm
Library\Bee\artifacts\mvdfrm\UnityEngine.LocalizationModule.dll_03D40ECDA57AC688.mvfrm
Library\Bee\artifacts\mvdfrm\UnityEngine.ParticleSystemModule.dll_DE7DE08ACCCD55A4.mvfrm
Library\Bee\artifacts\mvdfrm\UnityEngine.PerformanceReportingModule.dll_609F936D162D467D.mvfrm
Library\Bee\artifacts\mvdfrm\UnityEngine.Physics2DModule.dll_8D941D93C216E3FE.mvfrm
Library\Bee\artifacts\mvdfrm\UnityEngine.PhysicsModule.dll_613EDBBFEEAF774C.mvfrm
Library\Bee\artifacts\mvdfrm\UnityEngine.ProfilerModule.dll_B80071F4478E4868.mvfrm
Library\Bee\artifacts\mvdfrm\UnityEngine.PropertiesModule.dll_1E3322DB7C1660F2.mvfrm
Library\Bee\artifacts\mvdfrm\UnityEngine.RuntimeInitializeOnLoadManagerInitializerModule.dll_4987D778F0F950C7.mvfrm
Library\Bee\artifacts\mvdfrm\UnityEngine.ScreenCaptureModule.dll_8E38190C6D32736F.mvfrm
Library\Bee\artifacts\mvdfrm\UnityEngine.SharedInternalsModule.dll_BB342BDC520A4F66.mvfrm
Library\Bee\artifacts\mvdfrm\UnityEngine.SpriteMaskModule.dll_DA24562D2A9A9230.mvfrm
Library\Bee\artifacts\mvdfrm\UnityEngine.SpriteShapeModule.dll_E24F1D010C12D2C1.mvfrm
Library\Bee\artifacts\mvdfrm\UnityEngine.StreamingModule.dll_F5831AF370A1A3A7.mvfrm
Library\Bee\artifacts\mvdfrm\UnityEngine.SubstanceModule.dll_D22E2F3CBBF4A1B5.mvfrm
Library\Bee\artifacts\mvdfrm\UnityEngine.SubsystemsModule.dll_44D1BC8EF8E27A43.mvfrm
Library\Bee\artifacts\mvdfrm\UnityEngine.TerrainModule.dll_7B85572EC46DC03A.mvfrm
Library\Bee\artifacts\mvdfrm\UnityEngine.TerrainPhysicsModule.dll_DEF8895DE6105031.mvfrm
Library\Bee\artifacts\mvdfrm\UnityEngine.TextCoreFontEngineModule.dll_5E85B9E76302377C.mvfrm
Library\Bee\artifacts\mvdfrm\UnityEngine.TextCoreTextEngineModule.dll_A66DF058F285F09A.mvfrm
Library\Bee\artifacts\mvdfrm\UnityEngine.TextRenderingModule.dll_B7778B172469F364.mvfrm
Library\Bee\artifacts\mvdfrm\UnityEngine.TilemapModule.dll_1A81BEAFDC2AA143.mvfrm
Library\Bee\artifacts\mvdfrm\UnityEngine.TLSModule.dll_1C3C11FCC3391520.mvfrm
Library\Bee\artifacts\mvdfrm\UnityEngine.UIElementsModule.dll_49101DF6FC0EB63A.mvfrm
Library\Bee\artifacts\mvdfrm\UnityEngine.UIModule.dll_4F331B664A000833.mvfrm
Library\Bee\artifacts\mvdfrm\UnityEngine.UmbraModule.dll_91D5DE1991EF368E.mvfrm
Library\Bee\artifacts\mvdfrm\UnityEngine.UnityAnalyticsCommonModule.dll_FBDE50B13015E4DB.mvfrm
Library\Bee\artifacts\mvdfrm\UnityEngine.UnityAnalyticsModule.dll_FE1D515478F4A7A0.mvfrm
Library\Bee\artifacts\mvdfrm\UnityEngine.UnityConnectModule.dll_334A537456FF0174.mvfrm
Library\Bee\artifacts\mvdfrm\UnityEngine.UnityCurlModule.dll_740ACED4912DDE56.mvfrm
Library\Bee\artifacts\mvdfrm\UnityEngine.UnityTestProtocolModule.dll_8CAE84A513DB1DC4.mvfrm
Library\Bee\artifacts\mvdfrm\UnityEngine.UnityWebRequestAssetBundleModule.dll_4EDA3A3A5D638271.mvfrm
Library\Bee\artifacts\mvdfrm\UnityEngine.UnityWebRequestAudioModule.dll_D89BE74B9C981115.mvfrm
Library\Bee\artifacts\mvdfrm\UnityEngine.UnityWebRequestModule.dll_48C1F4B0E5D0EE95.mvfrm
Library\Bee\artifacts\mvdfrm\UnityEngine.UnityWebRequestTextureModule.dll_66582FFA750DCB8A.mvfrm
Library\Bee\artifacts\mvdfrm\UnityEngine.UnityWebRequestWWWModule.dll_713035B4E245AD06.mvfrm
Library\Bee\artifacts\mvdfrm\UnityEngine.VehiclesModule.dll_FD7D323D285E90F6.mvfrm
Library\Bee\artifacts\mvdfrm\UnityEngine.VFXModule.dll_9D1AAA6B99A67E8D.mvfrm
Library\Bee\artifacts\mvdfrm\UnityEngine.VideoModule.dll_3C0AB66BC75AA6C0.mvfrm
Library\Bee\artifacts\mvdfrm\UnityEngine.VirtualTexturingModule.dll_EF373AB312FADCDC.mvfrm
Library\Bee\artifacts\mvdfrm\UnityEngine.VRModule.dll_A20541EBEBBA8DAB.mvfrm
Library\Bee\artifacts\mvdfrm\UnityEngine.WindModule.dll_F41682276F44F227.mvfrm
Library\Bee\artifacts\mvdfrm\UnityEngine.XRModule.dll_D4C404F074F4DB09.mvfrm
Library\Bee\artifacts\mvdfrm\Unity.Android.Gradle.dll_DB480D3D65629BFB.mvfrm
Library\Bee\artifacts\mvdfrm\Unity.Android.GradleProject.dll_6E46DD85DD9F6C6A.mvfrm
Library\Bee\artifacts\mvdfrm\Unity.Android.Types.dll_F3A8C8224645FE71.mvfrm
Library\Bee\artifacts\mvdfrm\Unity.VisualScripting.Antlr3.Runtime.dll_6B5854E2366B9BC5.mvfrm